[gd_scene load_steps=8 format=2]

[sub_resource type="Gradient" id=1]
colors = PoolColorArray( 0.933594, 0.0583496, 0.0583496, 1, 1, 0.712219, 0.101562, 1 )

[sub_resource type="GradientTexture" id=2]
gradient = SubResource( 1 )

[sub_resource type="Curve" id=3]
_data = [ Vector2( 0, 1 ), 0.0, -1.73578, 0, 0, Vector2( 1, 0 ), -0.356749, 0.0, 0, 0 ]

[sub_resource type="CurveTexture" id=4]
curve = SubResource( 3 )

[sub_resource type="ParticlesMaterial" id=5]
emission_shape = 2
emission_box_extents = Vector3( 0.8, 0.8, 0.8 )
gravity = Vector3( 0, 0, -3 )
initial_velocity = 2.0
initial_velocity_random = 1.0
angular_velocity = -0.000891578
angle = -2.0
angle_random = 1.0
scale = 0.0
scale_random = 0.3
scale_curve = SubResource( 4 )
color_ramp = SubResource( 2 )

[sub_resource type="SpatialMaterial" id=6]
flags_unshaded = true
flags_do_not_receive_shadows = true
vertex_color_use_as_albedo = true
params_billboard_mode = 3
params_billboard_keep_scale = true
particles_anim_h_frames = 1
particles_anim_v_frames = 1
particles_anim_loop = false

[sub_resource type="QuadMesh" id=7]
material = SubResource( 6 )

[node name="Disintegrate" type="Spatial"]

[node name="Particles" type="Particles" parent="."]
transform = Transform( 1, 0, 0, 0, -4.37114e-08, 1, 0, -1, -4.37114e-08, 0, 0, 0 )
amount = 30
lifetime = 2.0
explosiveness = 0.98
process_material = SubResource( 5 )
draw_pass_1 = SubResource( 7 )

[node name="Timer" type="Timer" parent="."]
wait_time = 2.0
one_shot = true
autostart = true
[connection signal="timeout" from="Timer" to="." method="queue_free" flags=6]
